{
  "__type__": "cc.SpriteFrame",
  "content": {
    "name": "NunitoSans-BoldItalic",
    "texture": "7105934a-dc2c-45bb-9ce2-850b0a315103",
    "atlas": "",
    "rect": [
      0,
      0,
      1023,
      865
    ],
    "offset": [
      -0.5,
      79.5
    ],
    "originalSize": [
      1024,
      1024
    ],
    "capInsets": [
      0,
      0,
      0,
      0
    ]
  }
}