{
  "__type__": "cc.AnimationClip",
  "_name": "down",
  "_objFlags": 0,
  "_native": "",
  "_duration": 1.0166666666666666,
  "sample": 60,
  "speed": 1,
  "wrapMode": 2,
  "curveData": {
    "props": {
      "opacity": [
        {
          "frame": 0,
          "value": 130
        },
        {
          "frame": 1.0166666666666666,
          "value": 0
        }
      ]
    }
  },
  "events": []
}